[
  {
    "class":"logger.LogLevelAnnotation",
    "globalLogLevel":{
      
    }
  },
  {
    "class":"firrtl.options.TargetDirAnnotation",
    "directory":"./generated"
  },
  {
    "class":"firrtl.EmitCircuitAnnotation",
    "emitter":"firrtl.VerilogEmitter"
  },
  {
    "class":"firrtl.options.OutputAnnotationFileAnnotation",
    "file":"FIR"
  },
  {
    "class":"firrtl.transforms.BlackBoxTargetDirAnno",
    "targetDir":"./generated"
  }
]