[
  {
    "class":"logger.LogLevelAnnotation",
    "globalLogLevel":{
      
    }
  },
  {
    "class":"firrtl.options.TargetDirAnnotation",
    "directory":"./generated"
  },
  {
    "class":"firrtl.EmitCircuitAnnotation",
    "emitter":"firrtl.VerilogEmitter"
  },
  {
    "class":"firrtl.transforms.BlackBoxResourceAnno",
    "target":"Execute.seven_seg_ctrl",
    "resourceId":"/seven_seg_ctrl.v"
  },
  {
    "class":"firrtl.options.OutputAnnotationFileAnnotation",
    "file":"Execute"
  },
  {
    "class":"firrtl.transforms.BlackBoxTargetDirAnno",
    "targetDir":"./generated"
  }
]